EESchema Schematic File Version 2
LIBS:power
LIBS:device
LIBS:transistors
LIBS:conn
LIBS:linear
LIBS:regul
LIBS:74xx
LIBS:cmos4000
LIBS:adc-dac
LIBS:memory
LIBS:xilinx
LIBS:microcontrollers
LIBS:dsp
LIBS:microchip
LIBS:analog_switches
LIBS:motorola
LIBS:texas
LIBS:intel
LIBS:audio
LIBS:interface
LIBS:digital-audio
LIBS:philips
LIBS:display
LIBS:cypress
LIBS:siliconi
LIBS:opto
LIBS:atmel
LIBS:contrib
LIBS:valves
LIBS:SIM800H
LIBS:NEO-M8
LIBS:24_
LIBS:PN532
LIBS:DS3231M_
LIBS:DS1307
LIBS:CRYSTAL
LIBS:zetex
LIBS:wiznet
LIBS:video
LIBS:ttl_ieee
LIBS:triac_thyristor
LIBS:transf
LIBS:switches
LIBS:supertex
LIBS:stm8
LIBS:stm32
LIBS:silabs
LIBS:sensors
LIBS:rfcom
LIBS:relays
LIBS:references
LIBS:pspice
LIBS:powerint
LIBS:onsemi
LIBS:nxp_armmcu
LIBS:nxp
LIBS:nordicsemi
LIBS:msp430
LIBS:motors
LIBS:motor_drivers
LIBS:modules
LIBS:microchip_pic32mcu
LIBS:microchip_pic24mcu
LIBS:microchip_pic18mcu
LIBS:microchip_pic16mcu
LIBS:microchip_pic12mcu
LIBS:microchip_pic10mcu
LIBS:microchip_dspic33dsc
LIBS:mechanical
LIBS:maxim
LIBS:logo
LIBS:leds
LIBS:ir
LIBS:intersil
LIBS:infineon
LIBS:hc11
LIBS:graphic
LIBS:gennum
LIBS:ftdi
LIBS:elec-unifil
LIBS:diode
LIBS:dc-dc
LIBS:cmos_ieee
LIBS:brooktre
LIBS:bosch
LIBS:bbd
LIBS:battery_management
LIBS:analog_devices
LIBS:allegro
LIBS:actel
LIBS:ac-dc
LIBS:Zilog
LIBS:Xicor
LIBS:Worldsemi
LIBS:RFSolutions
LIBS:Power_Management
LIBS:Oscillators
LIBS:Lattice
LIBS:LEM
LIBS:ESD_Protection
LIBS:Altera
LIBS:74xgxx
LIBS:U.FL
LIBS:LTM8061EV-8.2PBF
LIBS:ESDA6V1SC5
LIBS:1048
LIBS:ATMEGA2560-16AU
LIBS:7111S2015X02LF
LIBS:47553-2001
LIBS:AVRISP
LIBS:SIMHOLDER
LIBS:74HC4050D_652
LIBS:DM3AT-SF-PEJM5
LIBS:25SVPF56M
LIBS:NRF8001-R2Q32-T
LIBS:CR1225
LIBS:CR1025
LIBS:ATMEGA328P-AU
LIBS:ABS06-32.768KHZ-1-T
LIBS:2450AT18B100E
LIBS:ESP12E
LIBS:ESP8266
LIBS:USB micro
LIBS:G3MB-202P
LIBS:MIC
LIBS:fds4488
LIBS:ba033fp
LIBS:w_connectors
LIBS:w_device
LIBS:speed governor-cache
EELAYER 25 0
EELAYER END
$Descr User 14488 11000
encoding utf-8
Sheet 1 1
Title "Speed governor"
Date "2017-05-14"
Rev "Rev. 1"
Comp "BENO CARS LTD"
Comment1 "Designed by R_INYURU"
Comment2 ""
Comment3 ""
Comment4 ""
$EndDescr
$Comp
L GND #PWR01
U 1 1 58F8F79E
P 10500 3500
F 0 "#PWR01" H 10500 3250 50  0001 C CNN
F 1 "GND" H 10500 3350 50  0000 C CNN
F 2 "" H 10500 3500 50  0001 C CNN
F 3 "" H 10500 3500 50  0001 C CNN
	1    10500 3500
	1    0    0    -1  
$EndComp
$Comp
L C_Small C3
U 1 1 58F8F870
P 11250 3100
F 0 "C3" H 11260 3170 50  0000 L CNN
F 1 "10uF" H 11260 3020 50  0000 L CNN
F 2 "Capacitors_SMD:C_1812_HandSoldering" H 11250 3100 50  0001 C CNN
F 3 "" H 11250 3100 50  0001 C CNN
	1    11250 3100
	1    0    0    -1  
$EndComp
$Comp
L C_Small C5
U 1 1 58F8F8EB
P 11500 3100
F 0 "C5" H 11510 3170 50  0000 L CNN
F 1 ".1uF" H 11510 3020 50  0000 L CNN
F 2 "Capacitors_SMD:C_1812_HandSoldering" H 11500 3100 50  0001 C CNN
F 3 "" H 11500 3100 50  0001 C CNN
	1    11500 3100
	1    0    0    -1  
$EndComp
$Comp
L C_Small C6
U 1 1 58F8F92A
P 11750 3100
F 0 "C6" H 11760 3170 50  0000 L CNN
F 1 ".1uF" H 11760 3020 50  0000 L CNN
F 2 "Capacitors_SMD:C_1812_HandSoldering" H 11750 3100 50  0001 C CNN
F 3 "" H 11750 3100 50  0001 C CNN
	1    11750 3100
	1    0    0    -1  
$EndComp
$Comp
L GND #PWR02
U 1 1 58F8FA8C
P 11250 3450
F 0 "#PWR02" H 11250 3200 50  0001 C CNN
F 1 "GND" H 11250 3300 50  0000 C CNN
F 2 "" H 11250 3450 50  0001 C CNN
F 3 "" H 11250 3450 50  0001 C CNN
	1    11250 3450
	1    0    0    -1  
$EndComp
Text GLabel 12200 2900 2    60   Input ~ 0
VCC_3.3
Text GLabel 9750 2900 0    60   Input ~ 0
VCC_5
$Comp
L DM3AT-SF-PEJM5 J3
U 1 1 590FB88E
P 7475 1600
F 0 "J3" H 7475 2220 50  0000 L CNN
F 1 "DM3AT-SF-PEJM5" H 7475 880 50  0000 L CNN
F 2 "DM3AT-SF-PEJM5:HRS_DM3AT-SF-PEJM5" H 7475 1600 50  0001 L CNN
F 3 "1.96 USD" H 7475 1600 50  0001 L CNN
F 4 "Hirose" H 7475 1600 50  0001 L CNN "MF"
F 5 "DM3 Series 8 Position Right Angle SMT Push Push Ejection MicroSD Card Connector" H 7475 1600 50  0001 L CNN "Description"
F 6 "None" H 7475 1600 50  0001 L CNN "Package"
F 7 "Good" H 7475 1600 50  0001 L CNN "Availability"
F 8 "DM3AT-SF-PEJM5" H 7475 1600 50  0001 L CNN "MP"
	1    7475 1600
	1    0    0    -1  
$EndComp
$Comp
L GND #PWR03
U 1 1 590FF2EF
P 7125 1850
F 0 "#PWR03" H 7125 1600 50  0001 C CNN
F 1 "GND" H 7250 1775 50  0000 C CNN
F 2 "" H 7125 1850 50  0001 C CNN
F 3 "" H 7125 1850 50  0001 C CNN
	1    7125 1850
	1    0    0    -1  
$EndComp
NoConn ~ 7275 1300
NoConn ~ 7275 1400
Text GLabel 7150 1100 0    60   Input ~ 0
VCC_3.3
$Comp
L LM2576HVS-ADJ U5
U 1 1 590E89E7
P 11275 1275
F 0 "U5" H 10875 1625 50  0000 L CNN
F 1 "LM2576HVS-ADJ" H 10875 1525 50  0000 L CNN
F 2 "TO_SOT_Packages_SMD:TO-263-5_TabPin3" H 11575 1025 50  0001 C CIN
F 3 "" H 11275 1275 50  0001 C CNN
	1    11275 1275
	1    0    0    -1  
$EndComp
$Comp
L CP C1
U 1 1 590E8AEE
P 10500 1400
F 0 "C1" H 10525 1500 50  0000 L CNN
F 1 "100uF" H 10525 1300 50  0000 L CNN
F 2 "Capacitors_SMD:C_1812_HandSoldering" H 10538 1250 50  0001 C CNN
F 3 "" H 10500 1400 50  0001 C CNN
	1    10500 1400
	1    0    0    -1  
$EndComp
$Comp
L L_Core_Ferrite L1
U 1 1 590E95B8
P 12175 1375
F 0 "L1" V 12125 1375 50  0000 C CNN
F 1 "68uH" V 12285 1375 50  0000 C CNN
F 2 "Choke_SMD:Choke_SMD_7.3x7.3_H3.5" H 12175 1375 50  0001 C CNN
F 3 "" H 12175 1375 50  0001 C CNN
	1    12175 1375
	0    -1   -1   0   
$EndComp
$Comp
L CP C8
U 1 1 590E979F
P 12450 1575
F 0 "C8" H 12475 1675 50  0000 L CNN
F 1 "1000uF" H 12475 1475 50  0000 L CNN
F 2 "Capacitors_SMD:C_1812_HandSoldering" H 12488 1425 50  0001 C CNN
F 3 "" H 12450 1575 50  0001 C CNN
	1    12450 1575
	1    0    0    -1  
$EndComp
$Comp
L D D2
U 1 1 590E9E69
P 10225 1175
F 0 "D2" H 10225 1275 50  0000 C CNN
F 1 "1N4007" H 10225 1075 50  0000 C CNN
F 2 "Diodes_SMD:D_2010" H 10225 1175 50  0001 C CNN
F 3 "" H 10225 1175 50  0001 C CNN
	1    10225 1175
	-1   0    0    1   
$EndComp
$Comp
L R R9
U 1 1 590EA1CB
P 12975 1575
F 0 "R9" V 13055 1575 50  0000 C CNN
F 1 "3K" V 12975 1575 50  0000 C CNN
F 2 "Resistors_SMD:R_1812_HandSoldering" V 12905 1575 50  0001 C CNN
F 3 "" H 12975 1575 50  0001 C CNN
	1    12975 1575
	1    0    0    -1  
$EndComp
$Comp
L R R10
U 1 1 590EA3F2
P 12975 2000
F 0 "R10" V 13055 2000 50  0000 C CNN
F 1 "1K" V 12975 2000 50  0000 C CNN
F 2 "Resistors_SMD:R_1812_HandSoldering" V 12905 2000 50  0001 C CNN
F 3 "" H 12975 2000 50  0001 C CNN
	1    12975 2000
	1    0    0    -1  
$EndComp
$Comp
L GND #PWR04
U 1 1 590EB37C
P 12975 2275
F 0 "#PWR04" H 12975 2025 50  0001 C CNN
F 1 "GND" H 12975 2125 50  0000 C CNN
F 2 "" H 12975 2275 50  0001 C CNN
F 3 "" H 12975 2275 50  0001 C CNN
	1    12975 2275
	1    0    0    -1  
$EndComp
$Comp
L GND #PWR05
U 1 1 590EBA82
P 12450 1850
F 0 "#PWR05" H 12450 1600 50  0001 C CNN
F 1 "GND" H 12450 1700 50  0000 C CNN
F 2 "" H 12450 1850 50  0001 C CNN
F 3 "" H 12450 1850 50  0001 C CNN
	1    12450 1850
	1    0    0    -1  
$EndComp
$Comp
L GND #PWR06
U 1 1 590EBB5C
P 11900 1850
F 0 "#PWR06" H 11900 1600 50  0001 C CNN
F 1 "GND" H 11900 1700 50  0000 C CNN
F 2 "" H 11900 1850 50  0001 C CNN
F 3 "" H 11900 1850 50  0001 C CNN
	1    11900 1850
	1    0    0    -1  
$EndComp
$Comp
L GND #PWR07
U 1 1 590EBFFB
P 11275 1725
F 0 "#PWR07" H 11275 1475 50  0001 C CNN
F 1 "GND" H 11275 1575 50  0000 C CNN
F 2 "" H 11275 1725 50  0001 C CNN
F 3 "" H 11275 1725 50  0001 C CNN
	1    11275 1725
	1    0    0    -1  
$EndComp
$Comp
L GND #PWR08
U 1 1 590EC2BA
P 10500 1675
F 0 "#PWR08" H 10500 1425 50  0001 C CNN
F 1 "GND" H 10500 1525 50  0000 C CNN
F 2 "" H 10500 1675 50  0001 C CNN
F 3 "" H 10500 1675 50  0001 C CNN
	1    10500 1675
	1    0    0    -1  
$EndComp
Text GLabel 13175 1375 2    60   Input ~ 0
VCC_5
$Comp
L MBR340 D3
U 1 1 590F6B08
P 11900 1600
F 0 "D3" H 11900 1700 50  0000 C CNN
F 1 "MBR340" H 11900 1500 50  0000 C CNN
F 2 "Diodes_THT:D_DO-201AD_P15.24mm_Horizontal" H 11900 1425 50  0001 C CNN
F 3 "" H 11900 1600 50  0001 C CNN
	1    11900 1600
	0    1    1    0   
$EndComp
$Comp
L LD3985G33R U1
U 1 1 590FA181
P 10500 2950
F 0 "U1" H 10250 3150 50  0000 C CNN
F 1 "LD3985G33R" H 10700 3150 50  0000 C CNN
F 2 "TO_SOT_Packages_SMD:TSOT-23-5" H 10500 3050 50  0001 C CIN
F 3 "" H 10500 2950 50  0001 C CNN
	1    10500 2950
	1    0    0    -1  
$EndComp
NoConn ~ 10950 3050
$Comp
L ESP12E U2
U 1 1 5918A1AD
P 2650 1400
F 0 "U2" H 2650 1400 50  0001 L CNN
F 1 "ESP12E" H 2650 1400 50  0001 L CNN
F 2 "ESP12E:ESP12E-SMD" H 2650 1400 50  0001 L CNN
F 3 "" H 2650 1400 60  0001 C CNN
	1    2650 1400
	1    0    0    -1  
$EndComp
$Comp
L CP2104 U3
U 1 1 591983AA
P 3125 4950
F 0 "U3" H 2825 5875 50  0000 R CNN
F 1 "CP2104" H 2825 5800 50  0000 R CNN
F 2 "Housings_DFN_QFN:QFN-24-1EP_4x4mm_Pitch0.5mm" H 3275 4000 50  0001 L CNN
F 3 "" H 2575 6200 50  0001 C CNN
	1    3125 4950
	1    0    0    -1  
$EndComp
$Comp
L USB_OTG J1
U 1 1 5919858D
P 875 4825
F 0 "J1" H 675 5275 50  0000 L CNN
F 1 "USB_OTG" H 675 5175 50  0000 L CNN
F 2 "Connectors:USB_Micro-B" H 1025 4775 50  0001 C CNN
F 3 "" H 1025 4775 50  0001 C CNN
	1    875  4825
	1    0    0    -1  
$EndComp
Text GLabel 2325 4950 0    60   Input ~ 0
USB_D+
Text GLabel 2325 4850 0    60   Input ~ 0
USB_D-
Text GLabel 1300 4825 2    60   Input ~ 0
USB_D+
Text GLabel 1300 4925 2    60   Input ~ 0
USB_D-
$Comp
L GND #PWR09
U 1 1 59199002
P 875 5350
F 0 "#PWR09" H 875 5100 50  0001 C CNN
F 1 "GND" H 875 5200 50  0000 C CNN
F 2 "" H 875 5350 50  0001 C CNN
F 3 "" H 875 5350 50  0001 C CNN
	1    875  5350
	1    0    0    -1  
$EndComp
$Comp
L C C4
U 1 1 5919873E
P 2325 5900
F 0 "C4" H 2350 6000 50  0000 L CNN
F 1 "4.7uF" H 2350 5800 50  0000 L CNN
F 2 "Capacitors_SMD:C_1812_HandSoldering" H 2363 5750 50  0001 C CNN
F 3 "" H 2325 5900 50  0001 C CNN
	1    2325 5900
	1    0    0    -1  
$EndComp
$Comp
L GND #PWR010
U 1 1 591987DB
P 2325 6200
F 0 "#PWR010" H 2325 5950 50  0001 C CNN
F 1 "GND" H 2325 6050 50  0000 C CNN
F 2 "" H 2325 6200 50  0001 C CNN
F 3 "" H 2325 6200 50  0001 C CNN
	1    2325 6200
	1    0    0    -1  
$EndComp
$Comp
L GND #PWR011
U 1 1 5919897B
P 3225 6100
F 0 "#PWR011" H 3225 5850 50  0001 C CNN
F 1 "GND" H 3225 5950 50  0000 C CNN
F 2 "" H 3225 6100 50  0001 C CNN
F 3 "" H 3225 6100 50  0001 C CNN
	1    3225 6100
	1    0    0    -1  
$EndComp
Text GLabel 1300 4625 2    60   Input ~ 0
VBUS
Text GLabel 2300 4550 0    60   Input ~ 0
VBUS
$Comp
L C C7
U 1 1 59199D9D
P 3550 3925
F 0 "C7" H 3575 4025 50  0000 L CNN
F 1 "0.1uF" H 3575 3825 50  0000 L CNN
F 2 "Capacitors_SMD:C_1812_HandSoldering" H 3588 3775 50  0001 C CNN
F 3 "" H 3550 3925 50  0001 C CNN
	1    3550 3925
	0    -1   -1   0   
$EndComp
Text GLabel 3125 3800 1    60   Input ~ 0
VCC_3.3
$Comp
L R R3
U 1 1 5919A338
P 4075 5450
F 0 "R3" V 4155 5450 50  0000 C CNN
F 1 "10K" V 4075 5450 50  0000 C CNN
F 2 "Resistors_SMD:R_1812_HandSoldering" V 4005 5450 50  0001 C CNN
F 3 "" H 4075 5450 50  0001 C CNN
	1    4075 5450
	0    1    1    0   
$EndComp
Text GLabel 4325 5450 2    60   Input ~ 0
VCC_3.3
NoConn ~ 3825 5550
NoConn ~ 3825 5650
NoConn ~ 3825 5250
NoConn ~ 3825 4650
NoConn ~ 3825 4450
NoConn ~ 3825 4350
NoConn ~ 3325 4050
NoConn ~ 2425 5350
NoConn ~ 2425 5450
NoConn ~ 2425 5250
NoConn ~ 2425 5150
Text GLabel 3975 4950 2    60   Input ~ 0
ESP_TXD
Text GLabel 3975 4850 2    60   Input ~ 0
ESP_RXD
$Comp
L GND #PWR012
U 1 1 5919B758
P 3875 4025
F 0 "#PWR012" H 3875 3775 50  0001 C CNN
F 1 "GND" H 3875 3875 50  0000 C CNN
F 2 "" H 3875 4025 50  0001 C CNN
F 3 "" H 3875 4025 50  0001 C CNN
	1    3875 4025
	1    0    0    -1  
$EndComp
Text GLabel 3400 1100 2    60   Input ~ 0
ESP_TXD
Text GLabel 3400 1200 2    60   Input ~ 0
ESP_RXD
Text GLabel 1800 1600 0    60   Input ~ 0
SD_MISO
Text GLabel 1800 1700 0    60   Input ~ 0
SD_MOSI
Text GLabel 1800 1500 0    60   Input ~ 0
SD_SCK
Text GLabel 3400 1300 2    60   Input ~ 0
CLK_SDA
Text GLabel 3400 1400 2    60   Input ~ 0
CLK_SCL
Text GLabel 3400 1700 2    60   Input ~ 0
RLY_SGNL
Text GLabel 7925 7520 2    60   Input ~ 0
FREQ_IN
Text GLabel 1800 1800 0    60   Input ~ 0
VCC_3.3
$Comp
L GND #PWR013
U 1 1 5919D162
P 3400 1875
F 0 "#PWR013" H 3400 1625 50  0001 C CNN
F 1 "GND" H 3400 1725 50  0000 C CNN
F 2 "" H 3400 1875 50  0001 C CNN
F 3 "" H 3400 1875 50  0001 C CNN
	1    3400 1875
	1    0    0    -1  
$EndComp
$Comp
L R R1
U 1 1 5919D5AD
P 1700 1100
F 0 "R1" V 1625 1100 50  0000 C CNN
F 1 "1.2K" V 1700 1100 50  0000 C CNN
F 2 "Resistors_SMD:R_1812_HandSoldering" V 1630 1100 50  0001 C CNN
F 3 "" H 1700 1100 50  0001 C CNN
	1    1700 1100
	0    1    1    0   
$EndComp
Text GLabel 1450 1100 0    60   Input ~ 0
VCC_3.3
NoConn ~ 1950 1300
NoConn ~ 1950 1200
NoConn ~ 2850 2500
NoConn ~ 2750 2500
NoConn ~ 2550 2500
NoConn ~ 2450 2500
NoConn ~ 2350 2500
Text GLabel 3400 1600 2    60   Input ~ 0
SD_CS
$Comp
L DS1307 U4
U 1 1 5919E801
P 7650 4000
F 0 "U4" H 7650 4000 50  0001 L CNN
F 1 "DS1307" H 7650 4000 50  0001 L CNN
F 2 "DS1307:SO08" H 7650 4000 60  0001 C CNN
F 3 "IC-08138" H 7650 4000 50  0001 L CNN
	1    7650 4000
	1    0    0    -1  
$EndComp
$Comp
L GND #PWR014
U 1 1 5919EADE
P 7125 4300
F 0 "#PWR014" H 7125 4050 50  0001 C CNN
F 1 "GND" H 7125 4150 50  0000 C CNN
F 2 "" H 7125 4300 50  0001 C CNN
F 3 "" H 7125 4300 50  0001 C CNN
	1    7125 4300
	1    0    0    -1  
$EndComp
$Comp
L GND #PWR015
U 1 1 5919EB8B
P 7125 4300
F 0 "#PWR015" H 7125 4050 50  0001 C CNN
F 1 "GND" H 7125 4150 50  0000 C CNN
F 2 "" H 7125 4300 50  0001 C CNN
F 3 "" H 7125 4300 50  0001 C CNN
	1    7125 4300
	1    0    0    -1  
$EndComp
Text GLabel 8625 4200 2    60   Input ~ 0
CLK_SDA
Text GLabel 8625 4100 2    60   Input ~ 0
CLK_SCL
NoConn ~ 8150 4000
$Comp
L Battery_Cell BT1
U 1 1 5919F552
P 6500 4375
F 0 "BT1" H 6600 4475 50  0000 L CNN
F 1 "Battery_Cell" H 6600 4375 50  0000 L CNN
F 2 "bat_coin:MPD_BU2032SM-BT-G" V 6500 4435 50  0001 C CNN
F 3 "" V 6500 4435 50  0001 C CNN
	1    6500 4375
	1    0    0    -1  
$EndComp
$Comp
L R R6
U 1 1 5919F7E6
P 8325 3900
F 0 "R6" V 8405 3900 50  0000 C CNN
F 1 "3.3K" V 8325 3900 50  0000 C CNN
F 2 "Resistors_SMD:R_1812_HandSoldering" V 8255 3900 50  0001 C CNN
F 3 "" H 8325 3900 50  0001 C CNN
	1    8325 3900
	1    0    0    -1  
$EndComp
$Comp
L R R7
U 1 1 5919FAC0
P 8500 3900
F 0 "R7" V 8580 3900 50  0000 C CNN
F 1 "3.3K" V 8500 3900 50  0000 C CNN
F 2 "Resistors_SMD:R_1812_HandSoldering" V 8430 3900 50  0001 C CNN
F 3 "" H 8500 3900 50  0001 C CNN
	1    8500 3900
	1    0    0    -1  
$EndComp
Text GLabel 8325 3600 1    60   Input ~ 0
VCC_3.3
$Comp
L BC817-40 Q1
U 1 1 591A0E21
P 2150 9325
F 0 "Q1" H 2325 9400 50  0000 L CNN
F 1 "BC817-40" H 2325 9250 50  0000 L CNN
F 2 "TO_SOT_Packages_SMD:SOT-23" H 2350 9250 50  0001 L CIN
F 3 "" H 2150 9325 50  0001 L CNN
	1    2150 9325
	1    0    0    -1  
$EndComp
$Comp
L G3MB-202P K1
U 1 1 5919F308
P 3400 9675
F 0 "K1" H 3325 9950 50  0000 L CNN
F 1 "G3MB-202P" H 3025 9500 50  0000 L CNN
F 2 "G3MB-202P:RELAY_G3MB-202P" H 3400 9675 50  0001 L CNN
F 3 "SIP-4 Omron" H 3400 9675 50  0001 L CNN
F 4 "G3MB-202P-DC12" H 3400 9675 50  0001 L CNN "MP"
F 5 "Omron" H 3400 9675 50  0001 L CNN "MF"
F 6 "Unavailable" H 3400 9675 50  0001 L CNN "Availability"
F 7 "Relay %E2%80%A2 Solid-State %E2%80%A2 Phototriac %E2%80%A2 Base%3A PCB terminal %E2%80%A2 Amperage%3A 2 AMP %E2%80%A2 Coil Voltage%3A 24 Vdc %E2%80%A2 Configuration%3A SPST-..." H 3400 9675 50  0001 L CNN "Description"
F 8 "None" H 3400 9675 50  0001 L CNN "Price"
	1    3400 9675
	1    0    0    -1  
$EndComp
$Comp
L G3MB-202P K2
U 1 1 5919F455
P 3425 8275
F 0 "K2" H 3350 8525 50  0000 L CNN
F 1 "G3MB-202P" H 3050 8100 50  0000 L CNN
F 2 "G3MB-202P:RELAY_G3MB-202P" H 3425 8275 50  0001 L CNN
F 3 "SIP-4 Omron" H 3425 8275 50  0001 L CNN
F 4 "G3MB-202P-DC12" H 3425 8275 50  0001 L CNN "MP"
F 5 "Omron" H 3425 8275 50  0001 L CNN "MF"
F 6 "Unavailable" H 3425 8275 50  0001 L CNN "Availability"
F 7 "Relay %E2%80%A2 Solid-State %E2%80%A2 Phototriac %E2%80%A2 Base%3A PCB terminal %E2%80%A2 Amperage%3A 2 AMP %E2%80%A2 Coil Voltage%3A 24 Vdc %E2%80%A2 Configuration%3A SPST-..." H 3425 8275 50  0001 L CNN "Description"
F 8 "None" H 3425 8275 50  0001 L CNN "Price"
	1    3425 8275
	1    0    0    -1  
$EndComp
Text GLabel 2975 7750 1    60   Input ~ 0
VCC_5
Text GLabel 2950 9150 1    60   Input ~ 0
VCC_5
$Comp
L GND #PWR016
U 1 1 5919F86B
P 2250 9725
F 0 "#PWR016" H 2250 9475 50  0001 C CNN
F 1 "GND" H 2250 9575 50  0000 C CNN
F 2 "" H 2250 9725 50  0001 C CNN
F 3 "" H 2250 9725 50  0001 C CNN
	1    2250 9725
	1    0    0    -1  
$EndComp
$Comp
L R R2
U 1 1 5919FB1B
P 2250 8875
F 0 "R2" V 2330 8875 50  0000 C CNN
F 1 "1K" V 2250 8875 50  0000 C CNN
F 2 "Resistors_SMD:R_1812_HandSoldering" V 2180 8875 50  0001 C CNN
F 3 "" H 2250 8875 50  0001 C CNN
	1    2250 8875
	1    0    0    -1  
$EndComp
Text GLabel 2250 8625 1    60   Input ~ 0
VCC_5
Text GLabel 1825 9325 0    60   Input ~ 0
RLY_SGNL
Text GLabel 2825 7750 1    60   Input ~ 0
RLY_SGNL
Text Notes 3775 9325 0    60   ~ 0
NO
Text Notes 3775 7900 0    60   ~ 0
NC
Text GLabel 9950 1175 0    60   Input ~ 0
VCC_24/12
Text GLabel 3650 9150 1    60   Input ~ 0
VCC_24/12
Text GLabel 3675 7750 1    60   Input ~ 0
VCC_24/12
Text GLabel 4000 9125 1    60   Input ~ 0
RLY_NO
Text GLabel 4025 7750 1    60   Input ~ 0
RLY_NC
$Comp
L C C2
U 1 1 591A81EF
P 1900 850
F 0 "C2" H 1925 950 50  0000 L CNN
F 1 "1uF" H 1925 750 50  0000 L CNN
F 2 "Capacitors_SMD:C_1812_HandSoldering" H 1938 700 50  0001 C CNN
F 3 "" H 1900 850 50  0001 C CNN
	1    1900 850 
	1    0    0    -1  
$EndComp
$Comp
L GND #PWR017
U 1 1 591A8616
P 2150 700
F 0 "#PWR017" H 2150 450 50  0001 C CNN
F 1 "GND" H 2150 550 50  0000 C CNN
F 2 "" H 2150 700 50  0001 C CNN
F 3 "" H 2150 700 50  0001 C CNN
	1    2150 700 
	1    0    0    -1  
$EndComp
Text GLabel 9750 2700 0    60   Input ~ 0
VBUS
$Comp
L BC817-40 Q3
U 1 1 591AA7CA
P 5425 3675
F 0 "Q3" H 5625 3750 50  0000 L CNN
F 1 "BC817-40" H 5625 3675 50  0000 L CNN
F 2 "TO_SOT_Packages_SMD:SOT-23" H 5625 3600 50  0001 L CIN
F 3 "" H 5425 3675 50  0001 L CNN
	1    5425 3675
	1    0    0    -1  
$EndComp
$Comp
L BC817-40 Q2
U 1 1 591AA8C9
P 5375 4425
F 0 "Q2" H 5575 4500 50  0000 L CNN
F 1 "BC817-40" H 5575 4425 50  0000 L CNN
F 2 "TO_SOT_Packages_SMD:SOT-23" H 5575 4350 50  0001 L CIN
F 3 "" H 5375 4425 50  0001 L CNN
	1    5375 4425
	1    0    0    1   
$EndComp
$Comp
L R R5
U 1 1 591AAA07
P 4975 3675
F 0 "R5" V 5055 3675 50  0000 C CNN
F 1 "1.8K" V 4975 3675 50  0000 C CNN
F 2 "Resistors_SMD:R_1812_HandSoldering" V 4905 3675 50  0001 C CNN
F 3 "" H 4975 3675 50  0001 C CNN
	1    4975 3675
	0    1    1    0   
$EndComp
$Comp
L R R4
U 1 1 591AAADF
P 4925 4425
F 0 "R4" V 5005 4425 50  0000 C CNN
F 1 "1.8K" V 4925 4425 50  0000 C CNN
F 2 "Resistors_SMD:R_1812_HandSoldering" V 4855 4425 50  0001 C CNN
F 3 "" H 4925 4425 50  0001 C CNN
	1    4925 4425
	0    1    1    0   
$EndComp
Text GLabel 3975 4550 2    60   Input ~ 0
DTR
Text GLabel 3975 5150 2    60   Input ~ 0
RTS
Text GLabel 4650 4425 0    60   Input ~ 0
DTR
Text GLabel 4700 3675 0    60   Input ~ 0
RTS
Text GLabel 1800 1200 0    60   Input ~ 0
RST
Text GLabel 5600 4675 2    60   Input ~ 0
RST
NoConn ~ 1175 5025
Text Notes 2800 700  0    60   ~ 12
ESP-12E MODULE
Text Notes 2975 3150 0    60   ~ 12
USB TO TTL
Text Notes 3100 6900 0    60   ~ 12
RELAY
Text Notes 7525 3100 0    60   ~ 12
DS1307
Text Notes 7275 650  0    60   ~ 12
SD CARD HOLDER
Text Notes 11275 625  0    60   ~ 12
POWER SUPPLY
Text Notes 11075 875  0    60   ~ 0
5V SUPPLY
Text Notes 10725 2550 0    60   ~ 0
3.3V SUPPLY
Text GLabel 7200 5600 0    60   Input ~ 0
FREQ_IN
Connection ~ 11750 2900
Connection ~ 11250 3300
Connection ~ 11250 2900
Connection ~ 11500 3300
Wire Wire Line
	11500 3200 11500 3300
Wire Wire Line
	11750 3300 11750 3200
Wire Wire Line
	11250 3300 12050 3300
Wire Wire Line
	11250 3200 11250 3450
Connection ~ 11500 2900
Wire Wire Line
	11500 2900 11500 3000
Wire Wire Line
	11750 2900 11750 3000
Wire Wire Line
	11250 3000 11250 2900
Wire Wire Line
	10500 3250 10500 3500
Wire Wire Line
	10950 2900 12200 2900
Wire Wire Line
	9750 2900 10050 2900
Wire Wire Line
	9900 2700 9900 3050
Connection ~ 9900 2900
Wire Wire Line
	7150 1700 7275 1700
Wire Wire Line
	7125 1850 7125 1800
Wire Wire Line
	7125 1800 7275 1800
Wire Wire Line
	7150 1200 7275 1200
Wire Wire Line
	7150 1100 7275 1100
Wire Wire Line
	7275 2000 7225 2000
Wire Wire Line
	7225 1800 7225 2100
Connection ~ 7225 1800
Wire Wire Line
	10775 1375 10700 1375
Wire Wire Line
	10700 1375 10700 1625
Wire Wire Line
	10700 1625 11275 1625
Wire Wire Line
	11275 1575 11275 1725
Wire Wire Line
	10375 1175 10775 1175
Wire Wire Line
	11775 1375 12025 1375
Wire Wire Line
	11900 1375 11900 1450
Wire Wire Line
	12325 1375 13175 1375
Wire Wire Line
	12450 1375 12450 1425
Connection ~ 11900 1375
Wire Wire Line
	12975 1375 12975 1425
Connection ~ 12450 1375
Wire Wire Line
	12975 1725 12975 1850
Wire Wire Line
	12975 2275 12975 2150
Wire Wire Line
	11775 1175 12825 1175
Wire Wire Line
	12825 1175 12825 1800
Wire Wire Line
	12825 1800 12975 1800
Connection ~ 12975 1800
Wire Wire Line
	11900 1850 11900 1750
Wire Wire Line
	12450 1850 12450 1725
Connection ~ 11275 1625
Wire Wire Line
	10500 1675 10500 1550
Connection ~ 12975 1375
Wire Wire Line
	9950 1175 10075 1175
Wire Wire Line
	9900 3050 10050 3050
Wire Wire Line
	875  5350 875  5225
Wire Wire Line
	775  5225 775  5300
Wire Wire Line
	775  5300 875  5300
Connection ~ 875  5300
Wire Wire Line
	2325 6200 2325 6050
Wire Wire Line
	2325 5750 2325 5650
Wire Wire Line
	2325 5650 2425 5650
Wire Wire Line
	3225 6100 3225 5950
Wire Wire Line
	3125 5950 3125 6025
Wire Wire Line
	3125 6025 3225 6025
Connection ~ 3225 6025
Wire Wire Line
	2300 4550 2425 4550
Wire Wire Line
	2425 4350 2350 4350
Wire Wire Line
	2350 4350 2350 4550
Connection ~ 2350 4550
Wire Wire Line
	2925 4050 2925 3925
Wire Wire Line
	2925 3925 3400 3925
Wire Wire Line
	3125 3800 3125 4050
Connection ~ 3125 3925
Wire Wire Line
	3975 4950 3825 4950
Wire Wire Line
	3975 4850 3825 4850
Wire Wire Line
	3875 4025 3875 3925
Wire Wire Line
	3875 3925 3700 3925
Wire Wire Line
	3400 1200 3250 1200
Wire Wire Line
	3250 1100 3400 1100
Wire Wire Line
	3400 1300 3250 1300
Wire Wire Line
	3400 1400 3250 1400
Wire Wire Line
	3400 1700 3250 1700
Wire Wire Line
	3400 1500 3250 1500
Wire Wire Line
	1800 1800 1950 1800
Wire Wire Line
	3400 1875 3400 1800
Wire Wire Line
	3400 1800 3250 1800
Wire Wire Line
	1850 1100 1950 1100
Wire Wire Line
	1450 1100 1550 1100
Wire Wire Line
	3400 1600 3250 1600
Wire Wire Line
	7225 2100 7275 2100
Connection ~ 7225 2000
Wire Wire Line
	7125 4300 7125 4200
Wire Wire Line
	6875 4200 7250 4200
Wire Wire Line
	7025 4075 7025 4000
Wire Wire Line
	7025 4000 7250 4000
Wire Wire Line
	7025 3900 7250 3900
Wire Wire Line
	6500 4175 6500 4125
Wire Wire Line
	6500 4125 7200 4125
Wire Wire Line
	7200 4125 7200 4100
Wire Wire Line
	7200 4100 7250 4100
Wire Wire Line
	6500 4475 6500 4525
Wire Wire Line
	6500 4525 6875 4525
Wire Wire Line
	6875 4525 6875 4200
Connection ~ 7125 4200
Wire Wire Line
	8325 4050 8325 4100
Wire Wire Line
	8150 4100 8625 4100
Wire Wire Line
	8500 4050 8500 4200
Wire Wire Line
	8150 4200 8625 4200
Wire Wire Line
	8325 3600 8325 3750
Wire Wire Line
	8500 3675 8500 3750
Wire Wire Line
	8225 3675 8500 3675
Connection ~ 8325 3675
Wire Wire Line
	8225 3675 8225 3900
Wire Wire Line
	8225 3900 8150 3900
Connection ~ 8325 4100
Connection ~ 8500 4200
Wire Wire Line
	2975 7750 2975 7850
Wire Wire Line
	2250 9725 2250 9525
Wire Wire Line
	2250 8625 2250 8725
Wire Wire Line
	2250 9025 2250 9125
Wire Wire Line
	1950 9325 1825 9325
Wire Wire Line
	2800 9250 2800 9075
Wire Wire Line
	2800 9075 2250 9075
Connection ~ 2250 9075
Wire Wire Line
	2825 7750 2825 7850
Wire Wire Line
	3650 9150 3650 9250
Wire Wire Line
	2950 9150 2950 9250
Wire Wire Line
	3675 7750 3675 7850
Wire Wire Line
	4000 9125 4000 9250
Wire Wire Line
	4025 7750 4025 7850
Wire Wire Line
	10500 1250 10500 1175
Connection ~ 10500 1175
Wire Notes Line
	6300 475  6300 10525
Wire Notes Line
	475  6700 6300 6700
Wire Notes Line
	475  2950 9275 2950
Wire Notes Line
	9275 475  9275 10525
Wire Notes Line
	9275 3900 14000 3900
Wire Notes Line
	6300 4750 9275 4750
Wire Wire Line
	1900 1000 1900 1200
Connection ~ 1900 1100
Wire Wire Line
	2150 625  2150 700 
Wire Wire Line
	2150 625  1900 625 
Wire Wire Line
	1900 625  1900 700 
Wire Wire Line
	9750 2700 9900 2700
Wire Wire Line
	1175 4925 1300 4925
Wire Wire Line
	1300 4825 1175 4825
Wire Wire Line
	2325 4850 2425 4850
Wire Wire Line
	2425 4950 2325 4950
Wire Wire Line
	3925 5450 3825 5450
Wire Wire Line
	4325 5450 4225 5450
Wire Wire Line
	5075 4425 5175 4425
Wire Wire Line
	5125 3675 5225 3675
Wire Wire Line
	5475 4225 5475 4075
Wire Wire Line
	4700 3675 4825 3675
Wire Wire Line
	4775 3675 4775 4075
Wire Wire Line
	4775 4075 5475 4075
Wire Wire Line
	5525 3875 5525 4050
Wire Wire Line
	5525 4050 4725 4050
Wire Wire Line
	4725 4050 4725 4425
Wire Wire Line
	4650 4425 4775 4425
Connection ~ 4775 3675
Connection ~ 4725 4425
Wire Wire Line
	5525 3475 5525 3425
Wire Wire Line
	5525 3425 5650 3425
Wire Wire Line
	5475 4625 5475 4675
Wire Wire Line
	5475 4675 5600 4675
Wire Wire Line
	3975 4550 3825 4550
Wire Wire Line
	3975 5150 3825 5150
Wire Wire Line
	1900 1200 1800 1200
Text GLabel 8250 5600 2    60   Input ~ 0
SGNL_IN
Text GLabel 3400 1500 2    60   Input ~ 0
SGNL_IN
Wire Wire Line
	7925 7520 7850 7520
Text GLabel 7925 7320 2    60   Input ~ 0
VCC_24/12
Wire Wire Line
	7925 7320 7850 7320
$Comp
L GND #PWR018
U 1 1 591C0B5A
P 8500 7435
F 0 "#PWR018" H 8500 7185 50  0001 C CNN
F 1 "GND" H 8500 7285 50  0000 C CNN
F 2 "" H 8500 7435 50  0001 C CNN
F 3 "" H 8500 7435 50  0001 C CNN
	1    8500 7435
	1    0    0    -1  
$EndComp
Wire Wire Line
	7850 7420 8500 7420
Wire Wire Line
	8500 7420 8500 7435
Text GLabel 7925 7620 2    60   Input ~ 0
RLY_NO
Wire Wire Line
	7925 7620 7850 7620
Text GLabel 7925 7720 2    60   Input ~ 0
RLY_NC
Wire Wire Line
	7925 7720 7850 7720
Wire Notes Line
	6305 6700 9270 6700
Text Notes 7340 4895 0    60   ~ 12
INPUT REGULATOR
Text Notes 7535 6845 0    60   ~ 12
CONNECTORS
$Comp
L GND #PWR019
U 1 1 591C02EA
P 7725 6125
F 0 "#PWR019" H 7725 5875 50  0001 C CNN
F 1 "GND" H 7725 5975 50  0000 C CNN
F 2 "" H 7725 6125 50  0001 C CNN
F 3 "" H 7725 6125 50  0001 C CNN
	1    7725 6125
	1    0    0    -1  
$EndComp
Wire Wire Line
	7200 5600 7300 5600
Wire Wire Line
	8150 5600 8250 5600
Wire Wire Line
	7725 6125 7725 6025
$Comp
L BA033FP U6
U 1 1 591C11B2
P 7725 5675
F 0 "U6" H 7825 5475 60  0000 C CNN
F 1 "BA033FP" H 7725 5875 60  0000 C CNN
F 2 "ba033fp:TO-252-3" H 7725 5625 60  0001 C CNN
F 3 "" H 7725 5625 60  0001 C CNN
	1    7725 5675
	1    0    0    -1  
$EndComp
Wire Wire Line
	1175 4625 1300 4625
Wire Wire Line
	7025 4075 6850 4075
Wire Wire Line
	6850 4075 6850 4050
Text GLabel 7150 1500 0    60   Input ~ 0
SD_CS
Wire Wire Line
	7150 1500 7275 1500
Text GLabel 7150 1600 0    60   Input ~ 0
SD_MOSI
Wire Wire Line
	7150 1600 7275 1600
Text GLabel 7150 1700 0    60   Input ~ 0
SD_SCK
Text GLabel 7150 1200 0    60   Input ~ 0
SD_MISO
Text GLabel 5650 3425 2    60   Input ~ 0
SGNL_IN
Wire Wire Line
	1800 1700 1950 1700
Wire Wire Line
	1950 1600 1800 1600
Wire Wire Line
	1800 1500 1950 1500
$Comp
L AB26T Y1
U 1 1 591CAB27
P 6850 3950
F 0 "Y1" H 6800 4075 50  0000 L CNN
F 1 "AB26T" H 6750 3850 50  0000 L CNN
F 2 "CRYSTAL:CRYSTAL-32KHZ-SMD-MELF" H 6850 3950 60  0001 C CNN
F 3 "32.768KHz" H 6675 4075 50  0001 L CNN
F 4 "XTAL-08297" H 6700 3825 50  0001 L CNN "PROD_ID"
	1    6850 3950
	0    -1   -1   0   
$EndComp
Wire Wire Line
	6850 3800 7025 3800
Wire Wire Line
	7025 3800 7025 3900
Wire Wire Line
	6850 3800 6850 3850
$Comp
L LED D1
U 1 1 591DB7DD
P 12050 3100
F 0 "D1" H 12050 3200 50  0000 C CNN
F 1 "LED" H 12050 3000 50  0000 C CNN
F 2 "LEDs:LED_D5.0mm_Horizontal_O3.81mm_Z9.0mm" H 12050 3100 50  0001 C CNN
F 3 "" H 12050 3100 50  0001 C CNN
	1    12050 3100
	0    -1   -1   0   
$EndComp
Wire Wire Line
	12050 2900 12050 2950
Wire Wire Line
	12050 3300 12050 3250
Connection ~ 11750 3300
Connection ~ 12050 2900
$Comp
L Buzzer BZ1
U 1 1 591DC2BD
P 925 1275
F 0 "BZ1" H 1075 1325 50  0000 L CNN
F 1 "Buzzer" H 1075 1225 50  0000 L CNN
F 2 "Buzzers_Beepers:Buzzer_12x9.5RM7.6" V 900 1375 50  0001 C CNN
F 3 "" V 900 1375 50  0001 C CNN
	1    925  1275
	0    1    -1   0   
$EndComp
NoConn ~ 2650 2500
Wire Wire Line
	1950 1400 1025 1400
Wire Wire Line
	1025 1400 1025 1375
$Comp
L GND #PWR020
U 1 1 591DCC52
P 825 1450
F 0 "#PWR020" H 825 1200 50  0001 C CNN
F 1 "GND" H 825 1300 50  0000 C CNN
F 2 "" H 825 1450 50  0001 C CNN
F 3 "" H 825 1450 50  0001 C CNN
	1    825  1450
	1    0    0    -1  
$EndComp
Wire Wire Line
	825  1450 825  1375
$Comp
L HEADER_5 J5
U 1 1 59230B58
P 7750 7520
F 0 "J5" H 7750 7820 60  0000 C CNN
F 1 "HEADER_5" H 7750 7220 60  0000 C CNN
F 2 "Connectors_JST:JST_PH_S5B-PH-K_05x2.00mm_Angled" H 7750 7520 60  0001 C CNN
F 3 "" H 7750 7520 60  0000 C CNN
	1    7750 7520
	-1   0    0    1   
$EndComp
$EndSCHEMATC
