G04 #@! TF.FileFunction,Soldermask,Top*
%FSLAX46Y46*%
G04 Gerber Fmt 4.6, Leading zero omitted, Abs format (unit mm)*
G04 Created by KiCad (PCBNEW 4.0.6-e0-6349~53~ubuntu16.04.1) date Tue May 23 11:15:02 2017*
%MOMM*%
%LPD*%
G01*
G04 APERTURE LIST*
%ADD10C,0.100000*%
%ADD11R,3.400000X1.600000*%
%ADD12R,1.600000X3.400000*%
%ADD13R,1.200000X0.700000*%
%ADD14R,1.200000X1.000000*%
%ADD15R,0.800000X1.000000*%
%ADD16R,2.800000X1.000000*%
%ADD17R,1.900000X1.300000*%
%ADD18R,4.200000X3.200000*%
%ADD19R,3.000000X2.200000*%
%ADD20R,2.200000X3.000000*%
%ADD21R,1.470000X1.270000*%
%ADD22R,3.200000X3.200000*%
%ADD23O,3.200000X3.200000*%
%ADD24R,1.350000X0.400000*%
%ADD25O,0.950000X1.250000*%
%ADD26O,1.550000X1.000000*%
%ADD27C,1.508000*%
%ADD28R,1.508000X1.508000*%
%ADD29R,1.500000X2.200000*%
%ADD30R,0.800000X0.900000*%
%ADD31R,0.900000X0.800000*%
%ADD32R,3.500000X3.500000*%
%ADD33R,1.220000X0.650000*%
%ADD34R,0.300000X0.850000*%
%ADD35R,0.850000X0.300000*%
%ADD36R,1.300000X1.300000*%
%ADD37R,0.609600X2.209800*%
%ADD38R,1.100000X4.600000*%
%ADD39R,10.800000X9.400000*%
%ADD40R,6.700000X6.700000*%
%ADD41R,1.600000X3.000000*%
%ADD42R,1.000000X2.500000*%
%ADD43R,2.500000X6.000000*%
%ADD44R,2.000000X2.000000*%
%ADD45C,2.000000*%
%ADD46R,1.800000X1.800000*%
%ADD47C,1.800000*%
%ADD48R,1.200000X1.700000*%
%ADD49O,1.200000X1.700000*%
G04 APERTURE END LIST*
D10*
D11*
X85045000Y-107230000D03*
X85045000Y-109230000D03*
X85045000Y-111230000D03*
X85045000Y-113230000D03*
X85045000Y-115230000D03*
X85045000Y-117230000D03*
X85045000Y-119230000D03*
X85045000Y-121230000D03*
X101445000Y-107230000D03*
X101445000Y-109230000D03*
X101445000Y-113230000D03*
X101445000Y-111230000D03*
X101445000Y-115230000D03*
X101445000Y-117230000D03*
X101445000Y-119230000D03*
X101445000Y-121230000D03*
D12*
X96545000Y-123330000D03*
X94545000Y-123330000D03*
X92545000Y-123330000D03*
X90545000Y-123330000D03*
X88545000Y-123330000D03*
X98545000Y-123330000D03*
D13*
X81394000Y-133006000D03*
X81394000Y-131906000D03*
X81394000Y-130806000D03*
X81394000Y-129706000D03*
X81394000Y-128606000D03*
X81394000Y-127506000D03*
X81394000Y-126406000D03*
X81394000Y-125306000D03*
X81394000Y-124356000D03*
D14*
X81394000Y-134556000D03*
X77094000Y-123406000D03*
D15*
X70894000Y-123406000D03*
D16*
X66744000Y-123406000D03*
D17*
X66294000Y-136906000D03*
D18*
X121158000Y-157906000D03*
X121158000Y-128606000D03*
D19*
X64770000Y-155300000D03*
X64770000Y-149500000D03*
D20*
X74824000Y-101854000D03*
X80624000Y-101854000D03*
X92350000Y-140335000D03*
X98150000Y-140335000D03*
X128418000Y-129032000D03*
X134218000Y-129032000D03*
X92350000Y-145415000D03*
X98150000Y-145415000D03*
X92350000Y-150495000D03*
X98150000Y-150495000D03*
D19*
X119126000Y-115168000D03*
X119126000Y-109368000D03*
X95250000Y-166476000D03*
X95250000Y-160676000D03*
D21*
X71120000Y-160625000D03*
X71120000Y-164495000D03*
D22*
X65405000Y-172720000D03*
D23*
X80645000Y-172720000D03*
D24*
X138096000Y-122458000D03*
X138096000Y-121808000D03*
X138096000Y-121158000D03*
X138096000Y-120508000D03*
X138096000Y-119858000D03*
D25*
X138096000Y-123658000D03*
X138096000Y-118658000D03*
D26*
X140796000Y-124658000D03*
X140796000Y-117658000D03*
D27*
X133604000Y-163830000D03*
X131064000Y-163830000D03*
X120904000Y-163830000D03*
D28*
X113284000Y-163830000D03*
D27*
X133604000Y-171958000D03*
X131064000Y-171958000D03*
X120904000Y-171958000D03*
D28*
X113284000Y-171958000D03*
D29*
X85700000Y-172085000D03*
X92100000Y-172085000D03*
D30*
X138496000Y-169894000D03*
X140396000Y-169894000D03*
X139446000Y-167894000D03*
D31*
X114792000Y-108900000D03*
X114792000Y-107000000D03*
X112792000Y-107950000D03*
X129540000Y-115316000D03*
X129540000Y-117216000D03*
X131540000Y-116266000D03*
D32*
X79629000Y-110998000D03*
X72829000Y-110998000D03*
X127918000Y-156718000D03*
X134718000Y-156718000D03*
X109474000Y-115628000D03*
X109474000Y-122428000D03*
X124714000Y-108741000D03*
X124714000Y-115541000D03*
X131064000Y-110744000D03*
X131064000Y-103944000D03*
X102616000Y-129188000D03*
X102616000Y-135988000D03*
X107696000Y-129090000D03*
X107696000Y-135890000D03*
X89154000Y-163576000D03*
X82354000Y-163576000D03*
X84640000Y-155575000D03*
X91440000Y-155575000D03*
D33*
X85010000Y-144145000D03*
X85010000Y-145095000D03*
X85010000Y-146045000D03*
X87630000Y-146045000D03*
X87630000Y-144145000D03*
D34*
X126106000Y-120590000D03*
X125606000Y-120590000D03*
X125106000Y-120590000D03*
X124606000Y-120590000D03*
X124106000Y-120590000D03*
X123606000Y-120590000D03*
D35*
X122906000Y-121290000D03*
X122906000Y-121790000D03*
X122906000Y-122290000D03*
X122906000Y-122790000D03*
X122906000Y-123290000D03*
X122906000Y-123790000D03*
D34*
X123606000Y-124490000D03*
X124106000Y-124490000D03*
X124606000Y-124490000D03*
X125106000Y-124490000D03*
X125606000Y-124490000D03*
X126106000Y-124490000D03*
D35*
X126806000Y-123790000D03*
X126806000Y-123290000D03*
X126806000Y-122790000D03*
X126806000Y-122290000D03*
X126806000Y-121790000D03*
X126806000Y-121290000D03*
D36*
X124206000Y-123190000D03*
X125506000Y-123190000D03*
X124206000Y-121890000D03*
X125506000Y-121890000D03*
D37*
X104267000Y-145491200D03*
X105537000Y-145491200D03*
X106807000Y-145491200D03*
X108077000Y-145491200D03*
X108077000Y-140258800D03*
X106807000Y-140258800D03*
X105537000Y-140258800D03*
X104267000Y-140258800D03*
D38*
X71295000Y-155085000D03*
X72995000Y-155085000D03*
X74695000Y-155085000D03*
X76395000Y-155085000D03*
X78095000Y-155085000D03*
D39*
X74695000Y-145935000D03*
D40*
X103364000Y-160228000D03*
D41*
X101064000Y-166878000D03*
X105664000Y-166878000D03*
D42*
X105918000Y-148336000D03*
X103378000Y-148336000D03*
D43*
X104648000Y-153416000D03*
D44*
X65151000Y-108819000D03*
D45*
X65151000Y-101219000D03*
D46*
X68580000Y-116713000D03*
D47*
X68580000Y-119253000D03*
D48*
X98311200Y-172567600D03*
D49*
X100311200Y-172567600D03*
X102311200Y-172567600D03*
X104311200Y-172567600D03*
X106311200Y-172567600D03*
M02*
