G04 #@! TF.FileFunction,Profile,NP*
%FSLAX46Y46*%
G04 Gerber Fmt 4.6, Leading zero omitted, Abs format (unit mm)*
G04 Created by KiCad (PCBNEW 4.0.6-e0-6349~53~ubuntu16.04.1) date Tue May 23 11:15:02 2017*
%MOMM*%
%LPD*%
G01*
G04 APERTURE LIST*
%ADD10C,0.100000*%
G04 APERTURE END LIST*
D10*
X139700000Y-177800000D02*
G75*
G03X142240000Y-175260000I0J2540000D01*
G01*
X142240000Y-99060000D02*
G75*
G03X139700000Y-96520000I-2540000J0D01*
G01*
X60960000Y-96520000D02*
G75*
G03X58420000Y-99060000I0J-2540000D01*
G01*
X58420000Y-175260000D02*
G75*
G03X60960000Y-177800000I2540000J0D01*
G01*
X58420000Y-99060000D02*
X58420000Y-175260000D01*
X139700000Y-96520000D02*
X60960000Y-96520000D01*
X142240000Y-175260000D02*
X142240000Y-99060000D01*
X60960000Y-177800000D02*
X139700000Y-177800000D01*
M02*
